{
    "plugins":{
        "SKR_moduleRetreatCleaner":"data.scripts.plugins.SKR_moduleRetreatCleaner",
    },
	
    "designTypeColors":{
        "Exotic Tech":[0,255,150,255],
    },
	
    "graphics":{	
        "ui":{
            "SKR_interference":"graphics/SEEKER/icons/hullsys/SKR_interference.png",
        },
        "shields":{
        },
        "fx":{            		
            "zap_00":"graphics/SEEKER/fx/zap_00.png",	
            "zap_01":"graphics/SEEKER/fx/zap_01.png",		
            "zap_02":"graphics/SEEKER/fx/zap_02.png",		
            "zap_03":"graphics/SEEKER/fx/zap_03.png",		
            "zap_04":"graphics/SEEKER/fx/zap_04.png",		
            "zap_05":"graphics/SEEKER/fx/zap_05.png",		
            "zap_06":"graphics/SEEKER/fx/zap_06.png",		
            "zap_07":"graphics/SEEKER/fx/zap_07.png",    

            "SKR_zapTrail_0":"graphics/SEEKER/fx/SKR_zapTrail_00.png", 
            "SKR_zapTrail_1":"graphics/SEEKER/fx/SKR_zapTrail_01.png",
            "SKR_zapTrail_2":"graphics/SEEKER/fx/SKR_zapTrail_02.png",
            "SKR_zapTrail_3":"graphics/SEEKER/fx/SKR_zapTrail_03.png",
            "SKR_zapTrail_4":"graphics/SEEKER/fx/SKR_zapTrail_04.png",
            "SKR_zapTrail_5":"graphics/SEEKER/fx/SKR_zapTrail_05.png", 

            "glowRing_01":"graphics/SEEKER/fx/SKR_ringHardGlow.jpg",
            "glowRing_02":"graphics/SEEKER/fx/SKR_ringSoftGlow.jpg",

            "target_BL":"graphics/SEEKER/fx/SKR_target_bottomLeft.png",
            "target_TL":"graphics/SEEKER/fx/SKR_target_topLeft.png",

            "sweetener":"graphics/SEEKER/fx/SKR_sweetener.png",   
            "SKR_flare":"graphics/SEEKER/fx/SKR_flareA.png", 
            "SKR_hueShift":"graphics/SEEKER/fx/SKR_hueShift.png", 
            
            "bar":"graphics/SEEKER/fx/SKR_debug.png",

            "SKR_drill_aura":"graphics/SEEKER/fx/SKR_drill_aura.png", 
            "SKR_drill_swoosh":"graphics/SEEKER/fx/SKR_drill_swoosh2.png",
            "SKR_drill_shadow":"graphics/SEEKER/fx/SKR_drill_trail3.png",  
            "SKR_drill_trail":"graphics/SEEKER/fx/SKR_drill_trail2.png",
            "SKR_drill_cloud":"graphics/SEEKER/fx/SKR_drill_cloud.png",
            "SKR_drill_sweetener":"graphics/SEEKER/fx/SKR_drill_sweetener.png",

            "SKR_plasma_splash_A":"graphics/SEEKER/fx/SKR_plasma_splash_00.png",
            "SKR_plasma_splash_B":"graphics/SEEKER/fx/SKR_plasma_splash_01.png",
            "SKR_plasma_splash_C":"graphics/SEEKER/fx/SKR_plasma_splash_02.png",
        },
    }
}