{
    "startShipsSolo":[["SKR_challenger_pather_combat"]],
    "startShipsCombatSmall":[["SKR_bully_pather_brawler", "SKR_challenger_assault", "SKR_challenger_brawler"]],
    "startShipsCombatLarge":[["SKR_foray_pather_standard", "SKR_bully_pather_support", "SKR_challenger_pather_combat"]],    
}