{
    "startShipsSuper":[
        ["SKR_hedone_premium"],
    ],

    "startShipsCombatSmall":[
      ["SKR_butterfly_standard", "wolf_CS", "omen_PD"],
    ],

    "startShipsCombatLarge":[
      ["SKR_whirlwind_standard", "shrike_Attack", "wolf_CS"],
    ],

    "startShipsCarrierLarge":[
      ["SKR_retiarius_standard", "buffalo_tritachyon_Standard", "brawler_tritachyon_Standard"]
    ],
}